<?xml version="1.0" ?>
<sdf version="1.6">
  <world name="default">
    <gui>
      <camera name="user_camera">
        <pose>-5 0 1 0 0.2 0</pose>
      </camera>
    </gui>
    <physics type="ode">
      <ode>
        <solver>
          <type>quick</type>
          <iters>100</iters>
          <sor>1.0</sor>
        </solver>
        <constraints>
          <cfm>0.0</cfm>
          <erp>0.2</erp>
          <contact_max_correcting_vel>0.1</contact_max_correcting_vel>
          <contact_surface_layer>0.0</contact_surface_layer>
        </constraints>
      </ode>
      <real_time_update_rate>-1</real_time_update_rate>
      <!--<max_step_size>0.0020</max_step_size>-->
    </physics>
    <gravity>0 0 -9.8</gravity>
    <include>
      <uri>model://sun</uri>
    </include>

   <model name="my_ground_plane">
      <static>true</static>
      <link name="link">
         <collision name="collision">
            <geometry>
               <plane>
                  <normal>0 0 1</normal>
                  <size>495 495</size>
               </plane>
            </geometry>
            <surface>
               <friction>
                  <ode>
                     <mu>100</mu>
                     <mu2>50</mu2>
                  </ode>
               </friction>
            </surface>
         </collision>
         <visual name="visual">
            <cast_shadows>true</cast_shadows>
            <geometry>
               <plane>
                  <normal>0 0 1</normal>
                  <size>442 488</size>
               </plane>
            </geometry>
            <material>
               <script>
                  <uri>model://my_ground_plane/materials/scripts</uri>
                  <uri>model://my_ground_plane/materials/textures/</uri>
                  <name>MyGroundPlane/Image</name>
               </script>
            </material>
         </visual>
      </link>
   </model>

    <model name="iris_demo">
      <include>
        <uri>model://iris_with_ardupilot</uri>
      </include>
    </model>
  </world>
</sdf>
