O,O,B-NE,I-NE,O,O,O,B-NE,I-NE,I-NE
O,O,B-NE,O,O,O,B-NE,I-NE
O,O,B-NE,I-NE,O,O,O,B-NE
O,O,O,O,O,O,B-NE,I-NE
O,O,B-NE,I-NE,I-NE,O,O,O,B-NE,I-NE,I-NE
O,O,B-NE,I-NE,O,O,O,B-NE,I-NE
O,O,B-NE,I-NE,O,O,O,B-NE
O,O,B-NE,I-NE,O,O,O,O,O,O,O,B-NE,I-NE
O,O,B-NE,I-NE,O,O,O,B-NE,I-NE,O,O,O,O
O,O,B-NE,I-NE,O,O,O,B-NE,I-NE
O,O,B-NE,I-NE,O,O,O,B-NE,I-NE,I-NE,I-NE
O,O,O,B-NE,O,O,O,B-NE,I-NE
O,O,B-NE,I-NE,I-NE,O,O,O,B-EVENT,I-EVENT
O,O,B-NE,I-NE,I-NE,I-NE,O,O,O,B-NE,I-NE
O,O,B-NE,I-NE,O,O,O,O,B-NE,I-NE,O
O,O,B-NE,I-NE,O,O,O,O,B-DATE,B-NE,O
O,O,O,O,O,O,O,B-NE,O,O,B-NE,I-NE,O
O,O,B-NE,I-NE,O,O,O,O,B-NE,I-NE,O
O,O,B-NE,I-NE,O,B-NE,O,O,B-NE,I-NE,I-NE,I-NE,O
O,O,O,O,O,O,O,O,B-NE,I-NE,I-NE,I-NE,O
O,O,B-NE,O,B-NE,I-NE,O,O,O,O,B-NE,I-NE,O
O,O,B-NE,O,O,O,O,O,O,O
O,O,B-NE,I-NE,I-NE,I-NE,O,O,O,O,B-NE,I-NE,I-NE,I-NE,O
O,O,B-NE,I-NE,O,O,O,O,B-NE,I-NE,O
O,O,O,B-NE,O,O,O,O,B-NE,O
O,O,B-NE,I-NE,O,O,O,O,B-NE,I-NE,O
O,O,O,O,O,O,O,B-NE,I-NE,I-NE,O
O,O,O,B-NE,O,O,O,O,O,O,O,O,O
O,O,O,O,O,B-NE,I-NE,O
O,O,B-NE,I-NE,I-NE,O,O,O,O,O
O,O,B-NE,I-NE,O,O,O
O,O,B-NE,O,B-NE,I-NE,I-NE,O
O,O,O,O,O,O,O,O
O,O,B-NE,I-NE,O,B-NE,I-NE,O
O,O,B-NE,I-NE,O,B-NE,I-NE,O
O,O,B-NE,I-NE,O,B-NE,I-NE,O
O,O,B-NE,I-NE,O,B-NE,I-NE,O
O,O,O,O,B-NE,I-NE,O
O,O,O,O,B-NE,I-NE,O
O,O,B-NE,I-NE,O,B-NE,I-NE,O,O,O,O,O
O,O,B-NE,I-NE,I-NE,O,B-NE,O
O,O,O,O,B-NE,I-NE,O
O,B-NE,I-NE,O,O,O,B-NE,I-NE,I-NE,I-NE,I-NE,I-NE,I-NE,I-NE,I-NE,O,O,O,O,O,B-NE,I-NE,I-NE,I-NE,I-NE,I-NE,I-NE,I-NE,I-NE,I-NE,O,O,O,O,O,B-NE,I-NE,O
O,B-NE,I-NE,O,O,O,O,O,O,O,O,O,O,O,O,O,O,O,O,B-NE,I-NE,O
O,B-NE,I-NE,I-NE,O,O,O,B-NE,I-NE,O,O,O,O,B-NE,I-NE,O,O,O,O,O,B-NE,I-NE,I-NE,O
O,B-NE,I-NE,O,O,O,B-NE,I-NE,O,O,O,O,B-NE,I-NE,O,O,O,O,O,B-NE,I-NE,O
O,B-NE,I-NE,I-NE,O,O,O,B-NE,O,O,O,O,B-NE,O,O,O,O,O,B-NE,I-NE,I-NE,O
O,B-NE,O,O,O,B-NE,I-NE,O,O,O,O,B-NE,I-NE,O,O,O,O,O,O,O
O,B-NE,I-NE,I-NE,I-NE,I-NE,I-NE,I-NE,I-NE,I-NE,O,O,O,O,B-NE,I-NE,I-NE,I-NE,O,O,O,O,B-NE,I-NE,I-NE,I-NE,O,O,O,O,O,B-NE,I-NE,I-NE,I-NE,I-NE,I-NE,I-NE,I-NE,I-NE,O,O
O,B-NE,I-NE,I-NE,O,O,O,B-NE,I-NE,O,O,O,O,B-NE,I-NE,O,O,O,O,O,B-NE,I-NE,I-NE,O
O,B-NE,O,B-NE,I-NE,O,O,O,B-NE,I-NE,O,O,O,O,B-NE,I-NE,O,O,O,O,O,B-NE,O,B-NE,I-NE,O
O,B-NE,I-NE,O,O,O,B-NE,I-NE,I-NE,I-NE,O,O,O,O,B-NE,I-NE,I-NE,I-NE,O,O,O,O,O,B-NE,I-NE,O
O,O,O,O,O,O,O,O,B-NE,I-NE,I-NE,I-NE,I-NE,I-NE,I-NE,O,O,O,O,B-NE,I-NE,I-NE,I-NE,I-NE,I-NE,I-NE,O,O,O,O,O,O,O,O,O,O
O,B-NE,O,O,O,B-NE,I-NE,I-NE,O,O,O,O,B-NE,I-NE,I-NE,O,O,O,O,O,B-NE,O
O,B-NE,I-NE,O,O,O,B-NE,I-NE,O,O,O,O,B-NE,I-NE,O,O,O,O,O,B-NE,I-NE,O
O,O,O,O,O,O,O,O,O
O,O,O,B-DATE,O,O,O,O,B-NE,I-NE,O
O,B-NE,I-NE,I-NE,O,O,O,B-NE,I-NE,O
O,B-NE,I-NE,O,O,O,O,O,O,O,B-NE,I-NE,O
O,O,O,O,O,O,O,O,O
O,B-NE,I-NE,O,O,O,B-NE,I-NE,O
O,B-NE,O,O,O,O,O,O
O,O,O,O,O,O,O
O,O,O,O,O,O,B-NE,I-NE,I-NE,O
O,B-NE,I-NE,O,O,O,O,B-NE,O
O,B-NE,I-NE,O,O,O,B-NE,I-NE,O
O,O,O,O,O,B-NE,I-NE,O
O,O,O,O,O,O,O,O,B-NE,I-NE,I-NE,O
O,B-NE,I-NE,O,O,O,B-NE,I-NE,O
O,B-NE,I-NE,O,O,O,O,O,B-NE,O
O,B-NE,I-NE,B-NE,I-NE,O,O,O,O,B-NE,I-NE,O
O,B-NE,I-NE,I-NE,I-NE,I-NE,I-NE,I-NE,O,O,O,O,B-NE,I-NE,O
O,B-NE,I-NE,O,O,O,O,B-NE,I-NE,O
O,B-NE,I-NE,O,O,O,O,O,O,O,O
O,B-NE,I-NE,O,O,O,O,B-NE,I-NE,I-NE,O
O,B-NE,I-NE,O,O,O,O,B-NE,I-NE,I-NE,O
O,B-NE,I-NE,O,O,O,O,B-NE,I-NE,O
O,B-NE,I-NE,I-NE,O,O,O,O,B-NE,I-NE,I-NE,I-NE,O
O,B-NE,I-NE,O,O,O,O,B-NE,I-NE,I-NE,I-NE,O
O,O,O,O,O,O,O,O,O,B-NE,O
O,O,O,O,O,O,O,O,B-NE,I-NE
O,O,B-NE,I-NE,I-NE,I-NE,O,O,O,O,O,O,O
O,O,B-NE,I-NE,O,O,O,O,O,O,O
O,O,O,O,O,O,O,O,O,O,O,O
O,O,O,O,O,B-NE,O,O,O,O,O,O,B-NE,I-NE,I-NE
O,O,O,O,O,O,O,O,B-NE,I-NE,I-NE,I-NE
O,O,B-NE,O,B-NE,I-NE,O,O,O,B-NE
O,O,B-NE,I-NE,O,O,O,B-NE,I-NE,I-NE,I-NE,I-NE,I-NE,I-NE,I-NE,I-NE,O
O,O,O,O,O,O,O,B-NE,I-NE
O,O,B-NE,I-NE,O,O,O,B-NE,I-NE
O,B-NE,I-NE,O,O,O,B-NE,I-NE,O
O,B-NE,I-NE,O,O,O,B-NE,I-NE,O
O,B-NE,I-NE,O,O,O,B-NE,I-NE,O
O,B-NE,I-NE,I-NE,O,O,O,B-NE,I-NE,I-NE,O
O,B-NE,I-NE,B-NE,I-NE,O,O,O,B-NE,I-NE,O
O,B-NE,I-NE,I-NE,O,O,O,B-NE,I-NE,O
O,B-NE,I-NE,I-NE,I-NE,O,O,O,B-NE,I-NE,O
O,B-NE,I-NE,I-NE,I-NE,I-NE,O,O,O,O,O,O,O,O
O,O,O,O,O,O,B-NE,I-NE,O
O,B-NE,O,O,O,B-NE,I-NE,O
