to	3978
the	3192
go	2570
org0	1325
fac0	1158
navigate	621
avoid	489
through	487
org1	464
fac1	430
and	374
going	323
person0	247
then	243
move	223
without	197
until	194
gate	191
always	188
,	175
you	172
avoiding	161
lot	139
of	129
while	108
changing_floors	105
before	102
directly	101
class	94
head	90
person1	90
but	86
brown	84
on	83
lab	82
green	78
memorial	77
reclining	64
figure	64
no.	64
—	64
from	63
proceed	61
idee	61
di	61
pietra	61
untitled	59
cardinal0	58
bert	57
bridge	56
prop	56
bear	54
after	53
travel	52
p-131317	50
college	50
cardinal1	49
org2	47
86	46
1887	45
17	44
pass	44
do	44
first	44
fac2	43
18	42
prince	42
stay	42
or	42
76	41
by	41
engineering	40
any	40
1872	39
navigating	39
get	38
hegeman	37
67	37
for	37
room	36
lamp/bear	36
urban	33
environmental	33
marcus	32
aurelius	32
not	32
if	32
students	31
color	31
soldiers	30
.	30
reached	29
wayland	28
maddock	28
alumni	28
can	28
finlandia	27
robot	27
sears	25
circle	24
dance	24
sculpture	24
way	24
level	24
1	23
war	23
gpe1	23
sharpe	23
refectory	23
anywhere	23
john	23
hope	22
ivy	22
building	22
(lamp/bear)	22
nicholas	22
other	22
objects	22
via	21
st_floor	20
another_floor	20
hall	19
robinson	19
(cssj)	18
quiet	18
loc1	18
other_floors	18
your	17
manning	16
gpe0	16
quite	16
wriston	16
quad	16
in	16
org3	16
cssj	15
maxcy	15
research	15
ordinal1	15
campus	14
market	14
morgan	14
witter	14
rogers	14
continue	14
fac3	14
house	13
loc0	13
slavery	12
passing	12
reaching	12
n't	12
have	12
list	11
art	11
up	11
only	11
ordinal2	11
may	11
whilst	10
ordinal0	10
george	9
blue	9
product0	9
medical	9
waterman	8
van	8
wickle	8
gates	8
simmons	8
quadrangle	8
into	8
visit	8
staying	8
landark	8
make	8
carrie	7
tower	7
leaving	7
never	7
enter	7
work_of_art1	7
saint	6
stephens	6
church	6
date1	6
metcalf	6
product1	6
date0	6
teaching	6
wilbour	5
rhode	5
island	5
remain	5
alpha	5
chi	5
omega	5
sorority	5
entering	5
leave	5
university	5
ever	5
once	5
just	5
landmark	4
slater	4
work_of_art0	4
towards	4
touching	4
william	4
goddard	4
reach	4
lippit	4
visiting	4
advance	4
haffenreffer	4
museum	4
anthropology	4
travelling	4
've	4
there	4
barus	3
arnold	3
laboratory	3
moving	3
down	3
away	3
center	3
start	3
passed	3
a	3
spot	3
touch	3
org4	3
work_of_art2	3
put	3
now	3
fac4	3
event0	2
faunce	2
gardner	2
lincoln	2
field	2
phi	2
kappa	2
psi	2
fraternity	2
norwood	2
starbucks	2
prospect	2
2	2
sayles	2
stepping	2
person2	2
orange	2
floor	2
been	2
cardinal2	2
at	2
cardinal3	2
toward	1
traveling	1
event1	1
hay	1
library	1
citizen's	1
bank	1
hughes	1
court	1
it	1
mencoff	1
horace	1
mann	1
approach	1
red	1
another	1
as	1
purple	1
loc2	1
marston	1
ordinal3	1
date2	1
sure	1
gone	1
got	1
loc3	1
gpe2	1
gpe3	1
loc4	1
person3	1
product3	1
be	1
done	1
