to	1813
the	1528
go	1218
fac0	583
org0	571
navigate	268
org1	237
through	228
fac1	222
avoid	216
and	185
then	120
move	114
going	110
person0	106
gate	104
until	88
you	88
always	82
,	74
avoiding	72
of	64
lot	57
before	56
class	54
on	52
while	48
but	44
lab	44
green	40
brown	39
memorial	39
directly	36
head	35
person1	35
from	33
travel	32
college	30
86	28
untitled	28
1887	27
reclining	27
figure	27
no.	27
—	27
cardinal0	26
bear	25
stay	24
bridge	24
prop	24
bert	23
do	23
1872	22
urban	22
environmental	22
proceed	21
idee	21
di	21
pietra	21
soldiers	21
without	21
fac2	21
prince	20
engineering	20
not	19
cardinal1	19
navigating	19
marcus	18
aurelius	18
lamp/bear	18
76	17
67	17
first	16
if	16
hope	15
pass	15
sears	14
18	14
room	14
gpe1	14
17	13
wayland	13
john	13
.	13
reached	13
hegeman	12
for	12
loc1	12
by	12
finlandia	11
ivy	11
anywhere	11
nicholas	11
landark	11
org2	11
or	11
gpe0	10
quite	10
war	10
robinson	10
building	10
robot	10
via	10
(lamp/bear)	10
students	10
color	10
way	10
after	10
can	10
loc0	9
maxcy	9
wriston	9
quad	9
house	9
your	9
continue	9
manning	8
waterman	8
(cssj)	8
sharpe	8
refectory	8
circle	8
dance	8
sculpture	8
cssj	8
simmons	7
quadrangle	7
get	7
visit	7
in	7
ordinal2	7
org3	7
may	7
product0	6
maddock	6
alumni	6
saint	6
stephens	6
church	6
1	6
date1	6
remain	6
carrie	5
tower	5
hall	5
campus	5
market	5
list	5
art	5
only	5
product1	5
staying	5
whilst	5
work_of_art0	5
start	5
quiet	5
ordinal1	5
have	5
enter	5
fac3	5
van	4
wickle	4
gates	4
slavery	4
up	4
morgan	4
witter	4
rogers	4
n't	4
work_of_art1	4
away	4
never	4
make	4
george	3
barus	3
research	3
into	3
reach	3
leaving	3
person2	3
passing	3
've	3
gone	3
blue	2
faunce	2
gardner	2
slater	2
medical	2
alpha	2
chi	2
omega	2
sorority	2
william	2
goddard	2
leave	2
entering	2
library	2
reaching	2
university	2
visiting	2
passed	2
travelling	2
teaching	2
ordinal0	2
sure	2
work_of_art2	2
now	2
wilbour	1
arnold	1
laboratory	1
rhode	1
island	1
lincoln	1
field	1
metcalf	1
norwood	1
traveling	1
friedman	1
hay	1
prospect	1
moving	1
kassar	1
loc2	1
citizen's	1
bank	1
down	1
advance	1
carter	1
a	1
spot	1
touch	1
lippit	1
date0	1
towards	1
ordinal3	1
horace	1
mann	1
phi	1
kappa	1
psi	1
fraternity	1
stepping	1
there	1
got	1
at	1
product3	1
person4	1
just	1
cardinal3	1
