QGC WPL 110
0	0	0	16	0.000000	0.000000	0.000000	0.000000	41.825008	-71.402257	-0.110000	1
1	0	3	22	0.000000	0.000000	0.000000	0.000000	0.000000	0.000000	10.000000	1
2	0	3	82	1.000000	0.000000	0.000000	0.000000	41.826257	-71.402001	3.000000	1
3	0	3	82	1.000000	0.000000	0.000000	0.000000	41.826812	-71.403556	3.000000	1
